<svg width="26" height="27" viewBox="0 0 26 27" fill="none" xmlns="http://www.w3.org/2000/svg">
<path d="M21.7712 13.6259C21.7712 8.81015 17.8674 4.90625 13.0517 4.90625C8.23593 4.90625 4.33203 8.81015 4.33203 13.6259C4.33203 17.9781 7.52067 21.5854 11.6892 22.2396V16.1464H9.47525V13.6259H11.6892V11.7048C11.6892 9.51947 12.991 8.31235 14.9827 8.31235C15.9367 8.31235 16.9346 8.48265 16.9346 8.48265V10.6285H15.8351C14.7519 10.6285 14.4141 11.3006 14.4141 11.9902V13.6259H16.8324L16.4458 16.1464H14.4141V22.2396C18.5827 21.5854 21.7712 17.9781 21.7712 13.6259Z" fill="#787387"/>
</svg>

